사례연구.knit
…
## `summarise()` has grouped output by 'age'. You can override using the `.groups` argument.

## # A tibble: 135 x 8
## # Groups:   age [70]
##      age gender income_mean income_sd income_median income_max income_min   cnt
##    <dbl> <fct>        <dbl>     <dbl>         <dbl>      <dbl>      <dbl> <int>
##  1    20 male           69      NA             69          69        69       1
##  2    20 female        147.      8.27         147.        153.      142.      2
##  3    21 male          102.     23.4           97.5       140        63.6     8
##  4    21 female        107.     64.0          110         258.       22      19
##  5    22 male          118.     65.1          103         280        36.7    14
##  6    22 female        140.     82.6          150         358.       15      17
##  7    23 male          153.     61.3          139.        240        96       4
##  8    23 female        139.     76.1          120         350        40      19
##  9    24 male          158.     63.2          155         280        60      13
## 10    24 female        126.     63.5          136         302.       20      40
## # ... with 125 more rows
…
library(doBy)
library(ggplot2)
library(readxl)
## 7. 어떤 직업이 월급이 가장 많은지 상위 10개 직업군만 시각화
#(1) 직업별 월급 평균, 표준편차, 빈도를 평균월급 순으로 정렬하여 출력하여 직업별 월급의 추이를 분석
ex<-read_excel("D:/Bigdata/src/R/Koweps/Koweps_Codebook.xlsx", col_names = TRUE, sheet="직종 코드")
left_join(welfare,ex, by="code_job") %>% 
  filter(!is.na(income)) %>% 
  group_by(job) %>% 
  summarise(income_mean=mean(income),
            income_sd =sd(income),
            cnt=n()) %>% 
  arrange(desc(income_mean))

## # A tibble: 142 x 4
##    job                                     income_mean income_sd   cnt
##    <chr>                                         <dbl>     <dbl> <int>
##  1 철도 및 전동차 기관사                          496.      35.4     2
##  2 항공기 선박 기관사 및 관제사                   488.      58.9     2
##  3 장교                                           479.      29.5     2
##  4 연구 교육 및 법률 관련 관리자                  476.     126.      5
##  5 제관원 및 판금원                               458.      NA       1
##  6 생명 및 자연 과학 관련 전문가                  443.     102.      7
##  7 경찰 소방 및 교도 관련 종사자                  434.     108.     47
##  8 통신 및 방송송출 장비 기사                     421.      65.1     3
##  9 행정 및 경영지원 관리자                        415.     170.      9
## 10 전기 전자 및 기계 공학 기술자 및 시험원        409.     134.     33
## # ... with 132 more rows
…
#(2) region 파생변수를 지역명으로 추가
region<-data.frame(code_region=c(1,2,3,4,5,6,7), region=c('서울','수도권(인천/경기)','부산/경남/울산','대구/경북','대전/충남','강원/충북','광주/전남/전북/제주도'))
welfare<-left_join(welfare,region, by="code_region")
#(3) 지역별 연령대 비율을 분석한 도표 및 그래프를 시각화
welfare %>% 
  group_by(region,agegrade) %>% 
  summarise(c=n()) %>% 
  group_by(region) %>% 
  summarise(agegrade=agegrade,cnt=c/sum(c))

## `summarise()` has grouped output by 'region'. You can override using the `.groups` argument.
## `summarise()` has grouped output by 'region'. You can override using the `.groups` argument.

## # A tibble: 21 x 3
## # Groups:   region [7]
##    region                agegrade   cnt
##    <chr>                 <chr>    <dbl>
##  1 강원/충북             middle   0.344
##  2 강원/충북             old      0.422
##  3 강원/충북             young    0.234
##  4 광주/전남/전북/제주도 middle   0.330
##  5 광주/전남/전북/제주도 old      0.411
##  6 광주/전남/전북/제주도 young    0.259
##  7 대구/경북             middle   0.319
##  8 대구/경북             old      0.444
##  9 대구/경북             young    0.236
## 10 대전/충남             middle   0.380
## # ... with 11 more rows
…
